{
	"info": {
		"_postman_id": "833be337-087e-41b4-8960-3926b9ede4db",
		"name": "Desucatan-S17-S18-Capstone1",
		"schema": "https://schema.getpostman.com/json/collection/v2.1.0/collection.json",
		"_exporter_id": "25608040",
		"_collection_link": "https://www.postman.com/eloisamarie29/workspace/cit/collection/25608040-833be337-087e-41b4-8960-3926b9ede4db?action=share&creator=25608040&source=collection_link"
	},
	"item": [
		{
			"name": "User Registration",
			"request": {
				"method": "POST",
				"header": [],
				"body": {
					"mode": "raw",
					"raw": "{\r\n    \"username\": \"eloisa\",\r\n    \"password\": \"eloisa123\"\r\n}",
					"options": {
						"raw": {
							"language": "json"
						}
					}
				},
				"url": {
					"raw": "localhost:8080/users/register",
					"host": [
						"localhost"
					],
					"port": "8080",
					"path": [
						"users",
						"register"
					]
				}
			},
			"response": []
		},
		{
			"name": "User Authentication",
			"request": {
				"method": "POST",
				"header": [],
				"body": {
					"mode": "raw",
					"raw": "{\r\n    \"username\": \"eloisa\",\r\n    \"password\": \"eloisa123\"\r\n}\r\n",
					"options": {
						"raw": {
							"language": "json"
						}
					}
				},
				"url": {
					"raw": "localhost:8080/authenticate",
					"host": [
						"localhost"
					],
					"port": "8080",
					"path": [
						"authenticate"
					]
				}
			},
			"response": []
		},
		{
			"name": "Create Course",
			"request": {
				"method": "POST",
				"header": [
					{
						"key": "Authorization",
						"value": "eyJhbGciOiJIUzUxMiJ9.eyJzdWIiOiJlbG9pc2EiLCJleHAiOjE2ODMyMDI4MjMsInVzZXIiOjEsImlhdCI6MTY4MzE4NDgyM30.WCx8WUty_5JnoD7FRv_d8v9ze71b3cpnhZoOOJTcwyMJFetcQ7U2hnScmbvKsThmtqF1PFbnVMe8EgTqVYw1gA",
						"type": "text"
					}
				],
				"body": {
					"mode": "raw",
					"raw": "{\r\n    \"name\": \"OOP2\",\r\n    \"description\": \"Object Oriented Programming 2\",\r\n    \"price\": 1000.0\r\n}",
					"options": {
						"raw": {
							"language": "json"
						}
					}
				},
				"url": {
					"raw": "localhost:8080/courses",
					"host": [
						"localhost"
					],
					"port": "8080",
					"path": [
						"courses"
					]
				}
			},
			"response": []
		},
		{
			"name": "Get Courses",
			"request": {
				"method": "GET",
				"header": [
					{
						"key": "Authorization",
						"value": "eyJhbGciOiJIUzUxMiJ9.eyJzdWIiOiJlbG9pc2EiLCJleHAiOjE2ODMyMDI4MjMsInVzZXIiOjEsImlhdCI6MTY4MzE4NDgyM30.WCx8WUty_5JnoD7FRv_d8v9ze71b3cpnhZoOOJTcwyMJFetcQ7U2hnScmbvKsThmtqF1PFbnVMe8EgTqVYw1gA",
						"type": "text"
					}
				],
				"url": {
					"raw": "localhost:8080/courses",
					"host": [
						"localhost"
					],
					"port": "8080",
					"path": [
						"courses"
					]
				}
			},
			"response": []
		},
		{
			"name": "Update Course",
			"request": {
				"method": "PUT",
				"header": []
			},
			"response": []
		},
		{
			"name": "Delete Course",
			"request": {
				"method": "DELETE",
				"header": []
			},
			"response": []
		}
	]
}